Bevölkerungsentwicklung Stadt Winterthur
…
Summe_Jahr_ohne_CH<- winterthur_fct |> 
  group_by(jahr, staatenkleingruppe) |> 
  summarise(summe = sum(anzahl, na.rm = TRUE)) |> 
  filter(staatenkleingruppe != "Schweiz")

Groesste_Gruppen_Winterthur <- Summe_Jahr_ohne_CH |> 
  filter(staatenkleingruppe %in% c("Deutschland", "Italien", "Asien", "Mazedonien", "Türkei", "Afrika"))

Summe_Jahr_ohne_CH |> 
  arrange(staatenkleingruppe, jahr) |> 
  group_by(staatenkleingruppe) |> 
  mutate(differenz = summe - lag(summe)) |> 
  ungroup()

# A tibble: 200 × 4
    jahr staatenkleingruppe summe differenz
   <dbl> <chr>              <dbl>     <dbl>
 1  2014 Afrika              1077        NA
 2  2015 Afrika              1163        86
 3  2016 Afrika              1319       156
 4  2017 Afrika              1440       121
 5  2018 Afrika              1553       113
 6  2019 Afrika              1730       177
 7  2020 Afrika              1794        64
 8  2021 Afrika              1873        79
 9  2022 Afrika              1994       121
10  2023 Afrika              2073        79
# ℹ 190 more rows
…
